-------------------------------------------------------------------------------
Test set: com.epam.controllertest.StudentControllerTest
-------------------------------------------------------------------------------
Tests run: 7, Failures: 0, Errors: 0, Skipped: 0, Time elapsed: 6.041 s - in com.epam.controllertest.StudentControllerTest
